<?xml version="1.0" encoding="utf-8"?>
<!-- Generator: Adobe Illustrator 18.0.0, SVG Export Plug-In . SVG Version: 6.00 Build 0)  -->
<!DOCTYPE svg PUBLIC "-//W3C//DTD SVG 1.1//EN" "http://www.w3.org/Graphics/SVG/1.1/DTD/svg11.dtd">
<svg version="1.1" id="Шар_1" xmlns="http://www.w3.org/2000/svg" xmlns:xlink="http://www.w3.org/1999/xlink" x="0px" y="0px"
	 width="60px" height="60px" viewBox="0 0 60 60" enable-background="new 0 0 60 60" xml:space="preserve">
<g>
	<g>
		<path fill="#967BB8" d="M45.415,36.738L45.415,36.738c-0.775,0-1.504-0.343-1.999-0.94c-0.495-0.597-0.694-1.383-0.548-2.156
			c0.194-1.028,1.016-1.85,2.044-2.045c0.943-0.178,1.899,0.167,2.501,0.893c0.495,0.597,0.694,1.383,0.548,2.155
			c-0.195,1.028-1.017,1.85-2.045,2.045C45.75,36.722,45.581,36.738,45.415,36.738z M45.414,32.847c-0.085,0-0.172,0.008-0.26,0.025
			c-0.502,0.095-0.918,0.511-1.012,1.012c-0.075,0.398,0.022,0.784,0.272,1.087c0.248,0.299,0.612,0.471,1,0.471l0,0
			c0.085,0,0.172-0.008,0.26-0.025c0.502-0.095,0.918-0.512,1.013-1.013c0.075-0.397-0.022-0.783-0.273-1.086
			C46.167,33.018,45.802,32.847,45.414,32.847z"/>
	</g>
	<g>
		<path fill="#967BB8" d="M23.364,17.281L23.364,17.281c-0.775,0-1.504-0.343-1.999-0.94c-0.495-0.597-0.694-1.383-0.548-2.156
			c0.194-1.028,1.016-1.85,2.044-2.045c0.942-0.179,1.9,0.167,2.501,0.893c0.495,0.597,0.694,1.383,0.548,2.155
			c-0.195,1.028-1.017,1.85-2.045,2.045C23.699,17.265,23.53,17.281,23.364,17.281z M23.363,13.39c-0.085,0-0.172,0.008-0.26,0.025
			c-0.502,0.095-0.918,0.511-1.012,1.012c-0.075,0.398,0.022,0.784,0.272,1.087c0.248,0.299,0.612,0.471,1,0.471l0,0
			c0.085,0,0.172-0.008,0.26-0.025c0.502-0.095,0.918-0.512,1.013-1.013c0.075-0.397-0.022-0.783-0.273-1.086
			C24.116,13.561,23.751,13.39,23.363,13.39z"/>
	</g>
	<g>
		<path fill="#967BB8" d="M35.038,47.115L35.038,47.115c-0.775,0-1.504-0.343-1.999-0.94c-0.495-0.597-0.694-1.383-0.548-2.156
			c0.194-1.028,1.016-1.85,2.044-2.045c0.942-0.177,1.899,0.167,2.501,0.893c0.495,0.597,0.694,1.383,0.548,2.155
			c-0.195,1.028-1.017,1.85-2.045,2.045C35.373,47.099,35.204,47.115,35.038,47.115z M35.037,43.223
			c-0.085,0-0.172,0.008-0.26,0.025c-0.502,0.095-0.918,0.511-1.012,1.012c-0.075,0.398,0.022,0.784,0.272,1.087
			c0.248,0.299,0.612,0.471,1,0.471l0,0c0.085,0,0.172-0.008,0.26-0.025c0.502-0.095,0.918-0.512,1.013-1.013
			c0.075-0.397-0.022-0.783-0.273-1.086C35.79,43.395,35.425,43.223,35.037,43.223z"/>
	</g>
	<g>
		<path fill="#967BB8" d="M13.635,34.792L13.635,34.792c-0.775,0-1.504-0.343-1.999-0.94c-0.495-0.597-0.694-1.383-0.548-2.156
			c0.194-1.028,1.016-1.85,2.044-2.045c0.945-0.179,1.9,0.167,2.501,0.893c0.495,0.597,0.694,1.383,0.548,2.155
			c-0.195,1.028-1.017,1.85-2.045,2.045C13.97,34.776,13.802,34.792,13.635,34.792z M13.635,30.901c-0.085,0-0.172,0.008-0.26,0.025
			c-0.502,0.095-0.918,0.511-1.012,1.012c-0.075,0.398,0.022,0.784,0.272,1.087c0.248,0.299,0.612,0.471,1,0.471l0,0
			c0.085,0,0.172-0.008,0.26-0.025c0.502-0.095,0.918-0.512,1.013-1.013c0.075-0.397-0.022-0.783-0.273-1.086
			C14.387,31.072,14.023,30.901,13.635,30.901z"/>
	</g>
	<g>
		
			<rect x="17.527" y="14.992" transform="matrix(0.878 0.4786 -0.4786 0.878 13.2804 -5.8789)" fill="#967BB8" width="1.297" height="16.253"/>
	</g>
	<g>
		
			<rect x="39.902" y="34.053" transform="matrix(0.7372 0.6757 -0.6757 0.7372 37.2328 -17.0625)" fill="#967BB8" width="1.297" height="10.558"/>
	</g>
	<g>
		
			<rect x="15.152" y="28.631" transform="matrix(0.3231 0.9463 -0.9463 0.3231 47.4733 -7.8162)" fill="#967BB8" width="28.098" height="1.297"/>
	</g>
</g>
</svg>
