<?xml version="1.0" encoding="utf-8"?>
<!-- Generator: Adobe Illustrator 18.0.0, SVG Export Plug-In . SVG Version: 6.00 Build 0)  -->
<!DOCTYPE svg PUBLIC "-//W3C//DTD SVG 1.1//EN" "http://www.w3.org/Graphics/SVG/1.1/DTD/svg11.dtd">
<svg version="1.1" id="Шар_1" xmlns="http://www.w3.org/2000/svg" xmlns:xlink="http://www.w3.org/1999/xlink" x="0px" y="0px"
	 width="60px" height="60px" viewBox="0 0 60 60" enable-background="new 0 0 60 60" xml:space="preserve">
<g>
	<path fill-rule="evenodd" clip-rule="evenodd" fill="#056CA1" d="M30,0C13.431,0,0,13.432,0,30s13.431,30,30,30
		c16.569,0,30-13.431,30-30S46.569,0,30,0z M30,58C14.536,58,2,45.464,2,30S14.536,2,30,2c15.464,0,28,12.536,28,28S45.464,58,30,58
		z"/>
	<path fill-rule="evenodd" clip-rule="evenodd" fill="#056CA1" d="M30,5C16.193,5,5,16.193,5,30c0,13.807,11.193,25,25,25
		c13.807,0,25-11.193,25-25C55,16.193,43.807,5,30,5z M37.993,19.976h-2.905c-2.276,0-2.701,1.063-2.701,2.596v3.407h5.422
		l-0.722,5.336h-4.7v13.684h-5.662V31.316h-4.718V25.98h4.718v-3.93c0-4.561,2.868-7.049,7.05-7.049
		c1.998,0,3.719,0.144,4.219,0.216V19.976z"/>
</g>
</svg>
