<?xml version="1.0" encoding="utf-8"?>
<!-- Generator: Adobe Illustrator 18.0.0, SVG Export Plug-In . SVG Version: 6.00 Build 0)  -->
<!DOCTYPE svg PUBLIC "-//W3C//DTD SVG 1.1//EN" "http://www.w3.org/Graphics/SVG/1.1/DTD/svg11.dtd">
<svg version="1.1" id="footer" xmlns="http://www.w3.org/2000/svg" xmlns:xlink="http://www.w3.org/1999/xlink" x="0px" y="0px"
	 width="24px" height="24px" viewBox="0 0 24 24" enable-background="new 0 0 24 24" xml:space="preserve">
<g>
	<rect x="5.974" y="9.451" fill="#FFFFFF" width="2.866" height="8.533"/>
	<path fill="#FFFFFF" d="M7.425,5.343c-0.973,0-1.616,0.637-1.616,1.472c0,0.818,0.617,1.472,1.581,1.472h0.017
		c0.999,0,1.624-0.654,1.616-1.472C9.014,5.981,8.406,5.343,7.425,5.343z"/>
	<path fill="#FFFFFF" d="M15.859,9.253c-1.525,0-2.203,0.828-2.58,1.412V9.451h-2.858c0,0,0.035,0.801,0,8.533h2.858v-4.762
		c0-0.258,0.026-0.508,0.096-0.697c0.208-0.508,0.677-1.033,1.468-1.033c1.034,0,1.451,0.784,1.451,1.929v4.563h2.858v-4.891
		C19.151,10.475,17.744,9.253,15.859,9.253z"/>
</g>
</svg>
