<?xml version="1.0" encoding="utf-8"?>
<!-- Generator: Adobe Illustrator 18.0.0, SVG Export Plug-In . SVG Version: 6.00 Build 0)  -->
<!DOCTYPE svg PUBLIC "-//W3C//DTD SVG 1.1//EN" "http://www.w3.org/Graphics/SVG/1.1/DTD/svg11.dtd">
<svg version="1.1" id="Isolation_Mode" xmlns="http://www.w3.org/2000/svg" xmlns:xlink="http://www.w3.org/1999/xlink" x="0px"
	 y="0px" width="43.204px" height="43.204px" viewBox="0 0 43.204 43.204" enable-background="new 0 0 43.204 43.204"
	 xml:space="preserve">
<g>
	<path fill-rule="evenodd" clip-rule="evenodd" fill="#0084C2" d="M4.53,38.674c5.598,5.598,14.674,5.598,20.272,0
		c0.796-0.795,1.478-1.661,2.047-2.577c0.916-0.569,1.782-1.252,2.577-2.047c0.795-0.796,1.478-1.661,2.047-2.577
		c0.916-0.569,1.782-1.252,2.577-2.047c0.795-0.795,1.478-1.661,2.048-2.577c0.915-0.569,1.781-1.252,2.576-2.047
		c5.598-5.598,5.598-14.674,0-20.272C33.076-1.068,24-1.068,18.402,4.53c-0.796,0.795-1.478,1.661-2.047,2.576
		c-0.916,0.569-1.782,1.252-2.577,2.048c-0.795,0.795-1.478,1.661-2.047,2.577c-0.916,0.569-1.781,1.252-2.577,2.047
		c-0.795,0.795-1.478,1.661-2.047,2.577c-0.916,0.569-1.781,1.252-2.577,2.047C-1.069,24-1.069,33.076,4.53,38.674z"/>
	<path fill-rule="evenodd" clip-rule="evenodd" fill="#41C0EA" d="M4.264,38.94c5.685,5.685,14.903,5.685,20.588,0
		c0.808-0.808,1.501-1.687,2.079-2.617c-5.616,3.491-13.094,2.798-17.971-2.079S3.39,21.889,6.881,16.273
		c-0.93,0.578-1.809,1.271-2.617,2.079C-1.421,24.037-1.421,33.255,4.264,38.94z"/>
	<path fill-rule="evenodd" clip-rule="evenodd" fill="#1E90D0" d="M8.96,34.244c4.877,4.877,12.355,5.57,17.971,2.079
		c0.633-1.018,1.128-2.097,1.486-3.21c-5.031,1.617-10.767,0.429-14.761-3.565c-3.994-3.993-5.182-9.73-3.565-14.761
		c-1.113,0.358-2.192,0.853-3.21,1.486C3.39,21.889,4.082,29.367,8.96,34.244z"/>
	<path fill-rule="evenodd" clip-rule="evenodd" fill="#006CA1" d="M13.656,29.548c3.993,3.994,9.73,5.182,14.761,3.565
		c0.418-1.302,0.649-2.651,0.691-4.005c-3.878,0.123-7.796-1.296-10.756-4.256c-2.96-2.96-4.379-6.878-4.257-10.756
		c-1.354,0.043-2.703,0.273-4.005,0.691C8.474,19.818,9.662,25.554,13.656,29.548z"/>
	<path fill-rule="evenodd" clip-rule="evenodd" fill="#005783" d="M18.352,24.852c2.96,2.96,6.878,4.379,10.756,4.256
		c0.123-3.878-1.296-7.796-4.257-10.756c-2.96-2.96-6.878-4.379-10.756-4.257C13.973,17.974,15.392,21.892,18.352,24.852z"/>
	<path fill-rule="evenodd" clip-rule="evenodd" fill="#006CA1" d="M24.852,18.352c2.96,2.96,4.379,6.878,4.257,10.756
		c1.354-0.042,2.703-0.273,4.004-0.692c1.617-5.031,0.429-10.767-3.565-14.761c-3.993-3.993-9.73-5.182-14.761-3.565
		c-0.418,1.302-0.649,2.651-0.692,4.004C17.974,13.973,21.892,15.392,24.852,18.352z"/>
	<path fill-rule="evenodd" clip-rule="evenodd" fill="#1E90D0" d="M29.548,13.656c3.993,3.993,5.182,9.73,3.565,14.761
		c1.114-0.358,2.193-0.853,3.21-1.486c3.491-5.616,2.798-13.094-2.079-17.971S21.889,3.39,16.273,6.881
		c-0.633,1.018-1.128,2.096-1.486,3.21C19.818,8.474,25.554,9.662,29.548,13.656z"/>
	<path fill-rule="evenodd" clip-rule="evenodd" fill="#41C0EA" d="M34.244,8.96c4.877,4.877,5.57,12.355,2.079,17.971
		c0.93-0.578,1.809-1.271,2.617-2.079c5.685-5.685,5.685-14.903,0-20.588c-5.685-5.685-14.903-5.685-20.588,0
		c-0.808,0.808-1.501,1.687-2.079,2.617C21.889,3.39,29.367,4.082,34.244,8.96z"/>
	<path fill-rule="evenodd" clip-rule="evenodd" fill="#41C0EA" d="M14.787,10.091c0.358-1.114,0.853-2.193,1.486-3.21
		c-0.93,0.578-1.809,1.271-2.617,2.079c-0.808,0.808-1.501,1.687-2.079,2.617C12.594,10.944,13.673,10.449,14.787,10.091z"/>
	<path fill-rule="evenodd" clip-rule="evenodd" fill="#1E90D0" d="M14.787,10.091c-1.114,0.358-2.193,0.853-3.21,1.486
		c-0.633,1.018-1.128,2.097-1.486,3.21c1.302-0.418,2.651-0.649,4.005-0.691C14.138,12.742,14.369,11.393,14.787,10.091z"/>
	<path fill-rule="evenodd" clip-rule="evenodd" fill="#41C0EA" d="M10.091,14.787c0.358-1.113,0.853-2.192,1.486-3.21
		c-0.93,0.578-1.809,1.272-2.617,2.079c-0.808,0.808-1.501,1.687-2.079,2.617C7.898,15.64,8.977,15.145,10.091,14.787z"/>
	<path fill-rule="evenodd" clip-rule="evenodd" fill="#1E90D0" d="M29.108,29.108c-0.042,1.354-0.273,2.703-0.691,4.005
		c1.114-0.358,2.192-0.853,3.21-1.486c0.633-1.018,1.128-2.097,1.486-3.21C31.811,28.835,30.462,29.066,29.108,29.108z"/>
	<path fill-rule="evenodd" clip-rule="evenodd" fill="#41C0EA" d="M31.627,31.627c-1.018,0.633-2.097,1.128-3.21,1.486
		c-0.358,1.113-0.853,2.192-1.486,3.21c0.93-0.578,1.809-1.271,2.617-2.079C30.355,33.436,31.049,32.557,31.627,31.627z"/>
	<path fill-rule="evenodd" clip-rule="evenodd" fill="#41C0EA" d="M33.113,28.417c-0.358,1.114-0.853,2.193-1.486,3.21
		c0.93-0.578,1.809-1.271,2.617-2.079c0.808-0.808,1.501-1.687,2.079-2.617C35.305,27.564,34.226,28.059,33.113,28.417z"/>
</g>
</svg>
