<?xml version="1.0" encoding="utf-8"?>
<!-- Generator: Adobe Illustrator 18.0.0, SVG Export Plug-In . SVG Version: 6.00 Build 0)  -->
<!DOCTYPE svg PUBLIC "-//W3C//DTD SVG 1.1//EN" "http://www.w3.org/Graphics/SVG/1.1/DTD/svg11.dtd">
<svg version="1.1" id="svg2429" xmlns="http://www.w3.org/2000/svg" xmlns:xlink="http://www.w3.org/1999/xlink" x="0px" y="0px"
	 width="1062.992px" height="668.483px" viewBox="304.433 86.904 1062.992 668.483"
	 enable-background="new 304.433 86.904 1062.992 668.483" xml:space="preserve">
<g id="layer1" transform="translate(3020.4204,-1581.6797)">
	<path id="path2427" fill="#FFFFFF" d="M-1652.995,2002.826c0,184.591-237.953,334.242-531.489,334.242
		c-86.537,0-168.219-13.022-240.407-36.094l-64.447-24.353c-137.04-60.427-226.649-160.523-226.649-273.795
		c0-184.597,237.953-334.241,531.503-334.241C-1890.948,1668.584-1652.995,1818.235-1652.995,2002.826L-1652.995,2002.826z"/>
	<path id="path5" fill="#0168AB" d="M-1652.995,2002.826c0,184.591-237.953,334.242-531.489,334.242
		c-86.537,0-168.219-13.022-240.407-36.094l94.113-350.667h46.065l-41.627,156.357h67.452l47.537-178.693h-113.51l36.034-135.746
		c4.498-16.982,22.853-42.595,47.863-42.609c14.82-0.013,33.235,7.397,34.058,16.837c-18.933,0-34.548,18.044-34.548,37.806
		c0,19.755,15.616,36.081,34.548,36.081c12.173,0,39.955-13.752,38.323-44.347c-0.975-18.899-12.027-56.175-72.387-57.554
		c-70.066-1.552-118.446,60.997-135.72,124.224c-10.196,37.633-35.577,127.421-57.243,209.116l-55.405,204.844
		c-137.04-60.427-226.649-160.523-226.649-273.795c0-184.597,237.953-334.241,531.503-334.241
		C-1890.948,1668.584-1652.995,1818.235-1652.995,2002.826L-1652.995,2002.826z M-2582.974,2106.664l22.051-82.471
		c113.012,1.711,134.891-25.613,150.513-96.223c11.019-49.488-16.286-87.632-65.641-87.632h-134.891l-5.924,22.329h29.613
		l-64.832,243.996H-2582.974L-2582.974,2106.664z M-2518.162,1862.661c35.378-1.38,49.023,7.045,35.378,65.303
		c-17.779,75.087-39.318,73.88-72.222,73.88L-2518.162,1862.661L-2518.162,1862.661z M-1682.96,1959.58
		c0-20.273-15.138-36.764-33.726-36.764c-14.959,0-36.18,9.791-51.319,34.197l7.39-29.042h-92.11l-5.937,22.336h24.671
		l-41.594,156.357h67.445c0,0,25.314-94.319,25.168-94.504c10.03-29.189,28.611-63.22,34.044-58.589
		c-5.758,27.676,14.309,42.788,32.233,42.788C-1698.105,1996.358-1682.96,1979.859-1682.96,1959.58L-1682.96,1959.58z
		 M-1995.025,2024.193h113.663c0.909-2.965,1.333-4.962,1.811-7.735c12.498-59.293-16.929-97.085-63.823-97.085
		c-50.669,0-97.543,17.175-117.125,97.085c-13.002,52.917,15.317,95.373,65.475,97.098c45.063,1.539,87.691-11.012,108.906-72.182
		h-69.097l-4.126,15.457c-8.219,30.94-19.231,34.376-31.404,34.376c-12.166,0-18.103-15.47-13.002-34.376L-1995.025,2024.193
		L-1995.025,2024.193z M-1982.354,1976.078c5.088-18.913,16.452-35.232,31.411-34.376c14.634,0,18.104,15.47,13.002,34.376
		l-6.415,24.061h-44.406L-1982.354,1976.078L-1982.354,1976.078z M-2085.171,2084.328h-57.588l99.201-156.358h-144.762
		l-5.924,22.336h57.568l-97.536,156.357h143.103L-2085.171,2084.328L-2085.171,2084.328z"/>
</g>
</svg>
